{
  "output": {
    "directory": "./dist",
    "filename": "trancorder-cli.js"
  },
  "entry": "./src/index",
  "target": "node-cli",
  "shared": {
    "ink": "../node_modules/ink",
    "react": "../node_modules/react"
  }
}